<?xml version="1.0" encoding="UTF-8"?>
<svg width="48px" height="48px" viewBox="0 0 48 48" version="1.1" xmlns="http://www.w3.org/2000/svg" xmlns:xlink="http://www.w3.org/1999/xlink">
    <!-- Generator: Sketch 47.1 (45422) - http://www.bohemiancoding.com/sketch -->
    <title>Group 5 Copy</title>
    <desc>Created with Sketch.</desc>
    <defs>
        <rect id="path-1" x="0" y="0" width="48" height="48"></rect>
    </defs>
    <g id="Page-1" stroke="none" stroke-width="1" fill="none" fill-rule="evenodd">
        <g id="Desktop-Company-Account-My-Posts" transform="translate(-864.000000, -471.000000)">
            <g id="Group-6" transform="translate(848.000000, 322.000000)">
                <g id="Group" transform="translate(16.000000, 77.000000)">
                    <g id="Group-5-Copy" transform="translate(0.000000, 72.000000)">
                        <g id="Rectangle-57">
                            <use fill="#FFFFFF" fill-rule="evenodd" xlink:href="#path-1"></use>
                            <rect stroke="#AFBDC4" stroke-width="1" x="0.5" y="0.5" width="47" height="47"></rect>
                        </g>
                        <path d="M17.081044,13.5927198 L17.081044,23.5714286 L20.1881868,21.689217 L23.325206,23.5714286 L23.325206,13.5927198 L17.081044,13.5927198 Z M32.0192308,11.1428571 C32.696432,11.1428571 33.2839948,11.3818657 33.7819368,11.8598901 C34.2798789,12.3379145 34.5288462,12.9155186 34.5288462,13.5927198 L34.5288462,33.5501374 C34.5288462,34.2273386 34.2798789,34.8049427 33.7819368,35.282967 C33.2839948,35.7609914 32.696432,36 32.0192308,36 L17.081044,36 C16.4038428,36 15.81628,35.7609914 15.3183379,35.282967 C14.8203959,34.8049427 14.5714286,34.2273386 14.5714286,33.5501374 L14.5714286,13.5927198 C14.5714286,12.9155186 14.8203959,12.3379145 15.3183379,11.8598901 C15.81628,11.3818657 16.4038428,11.1428571 17.081044,11.1428571 L32.0192308,11.1428571 Z" id="class---material-copy" fill="#AFBDC4"></path>
                    </g>
                </g>
            </g>
        </g>
    </g>
</svg>