<?xml version="1.0" encoding="UTF-8"?>
<svg width="47px" height="40px" viewBox="0 0 47 40" version="1.1" xmlns="http://www.w3.org/2000/svg" xmlns:xlink="http://www.w3.org/1999/xlink">
    <!-- Generator: Sketch 48.2 (47327) - http://www.bohemiancoding.com/sketch -->
    <title>Group</title>
    <desc>Created with Sketch.</desc>
    <defs></defs>
    <g id="Desktop-Company-Account" stroke="none" stroke-width="1" fill="none" fill-rule="evenodd" transform="translate(-80.000000, -32.000000)">
        <g id="Header" fill-rule="nonzero">
            <g id="Group-20" transform="translate(80.000000, 32.000000)">
                <g id="new-logo-copy-3">
                    <g id="Group" transform="translate(0.000000, 0.625000)">
                        <path d="M16.5852402,30.2951586 C16.1388334,30.3343763 15.6868972,30.3544016 15.2302672,30.3544016 C6.81882291,30.3544016 0,23.5593374 0,15.1772008 C0,7.055838 6.4011466,0.424333852 14.4499924,0.0195734531 L11.5807537,11.8650024 L20.9737885,11.8650024 L16.5852402,30.2951586 Z" id="Shape" fill="#FFBB00"></path>
                        <polygon id="Shape" fill="#FFFFFF" points="23.6332573 38.7898455 26.4139093 27.0139339 18.420106 30.4778658 23.2860185 10.0439456 13.9023461 10.0439456 16.3348455 0 46.2238844 0 43.791385 10.0439456 34.05956 10.0439456 31.9742995 15.5849619 42.7487547 11.0829431"></polygon>
                    </g>
                </g>
            </g>
        </g>
    </g>
</svg>