<?xml version="1.0" encoding="UTF-8"?>
<svg viewBox="0 0 17 17" version="1.1" xmlns="http://www.w3.org/2000/svg" xmlns:xlink="http://www.w3.org/1999/xlink">
    <!-- Generator: Sketch 48.2 (47327) - http://www.bohemiancoding.com/sketch -->
    <title>settings - material</title>
    <desc>Created with Sketch.</desc>
    <defs></defs>
    <g id="Desktop-Person-Account" stroke="none" stroke-width="1" fill="none" fill-rule="evenodd" transform="translate(-150.000000, -423.000000)">
        <g id="Group-8" transform="translate(80.000000, 215.000000)" fill="#465A65">
            <g id="Group-7" transform="translate(69.000000, 16.000000)">
                <path d="M9.10400005,203.24 C9.62400265,203.24 10.1106645,203.106668 10.5640001,202.84 C11.0173357,202.573332 11.3773321,202.216669 11.6440001,201.77 C11.9106681,201.323331 12.0440001,200.840003 12.0440001,200.32 C12.0440001,199.799997 11.9106681,199.313336 11.6440001,198.86 C11.3773321,198.406664 11.0173357,198.046668 10.5640001,197.78 C10.1106645,197.513332 9.62400265,197.38 9.10400005,197.38 C8.58399745,197.38 8.10066895,197.513332 7.65400005,197.78 C7.20733115,198.046668 6.85066805,198.406664 6.58400005,198.86 C6.31733205,199.313336 6.18400005,199.799997 6.18400005,200.32 C6.18400005,200.840003 6.31733205,201.323331 6.58400005,201.77 C6.85066805,202.216669 7.20733115,202.573332 7.65400005,202.84 C8.10066895,203.106668 8.58399745,203.24 9.10400005,203.24 Z M15.3240001,201.14 L17.0640001,202.5 C17.1440005,202.566667 17.1906667,202.653333 17.2040001,202.76 C17.2173335,202.866667 17.1973337,202.966666 17.1440001,203.06 L15.4640001,205.94 C15.4106665,206.033334 15.3406672,206.093333 15.2540001,206.12 C15.167333,206.146667 15.0706673,206.14 14.9640001,206.1 L12.9040001,205.28 C12.3706641,205.666669 11.8973355,205.939999 11.4840001,206.1 L11.1840001,208.28 C11.1573333,208.386667 11.1073338,208.473333 11.0340001,208.54 C10.9606664,208.606667 10.8773339,208.64 10.7840001,208.64 L7.42400005,208.64 C7.33066625,208.64 7.24733375,208.606667 7.17400005,208.54 C7.10066635,208.473333 7.05733345,208.386667 7.04400005,208.28 L6.72400005,206.1 C6.16399725,205.873332 5.69733525,205.600002 5.32400005,205.28 L3.24400005,206.1 C3.03066565,206.193334 2.86400065,206.140001 2.74400005,205.94 L1.06400005,203.06 C1.01066645,202.966666 0.990666651,202.866667 1.00400005,202.76 C1.01733345,202.653333 1.06399965,202.566667 1.14400005,202.5 L2.90400005,201.14 C2.87733325,200.953332 2.86400005,200.680002 2.86400005,200.32 C2.86400005,199.959998 2.87733325,199.686668 2.90400005,199.5 L1.14400005,198.14 C1.06399965,198.073333 1.01733345,197.986667 1.00400005,197.88 C0.990666651,197.773333 1.01066645,197.673334 1.06400005,197.58 L2.74400005,194.7 C2.86400065,194.499999 3.03066565,194.446666 3.24400005,194.54 L5.32400005,195.36 C5.80400245,194.999998 6.27066445,194.726668 6.72400005,194.54 L7.04400005,192.36 C7.05733345,192.253333 7.10066635,192.166667 7.17400005,192.1 C7.24733375,192.033333 7.33066625,192 7.42400005,192 L10.7840001,192 C10.8773339,192 10.9606664,192.033333 11.0340001,192.1 C11.1073338,192.166667 11.1573333,192.253333 11.1840001,192.36 L11.4840001,194.54 C12.0040027,194.740001 12.4773313,195.013332 12.9040001,195.36 L14.9640001,194.54 C15.0706673,194.5 15.167333,194.493333 15.2540001,194.52 C15.3406672,194.546667 15.4106665,194.606666 15.4640001,194.7 L17.1440001,197.58 C17.1973337,197.673334 17.2173335,197.773333 17.2040001,197.88 C17.1906667,197.986667 17.1440005,198.073333 17.0640001,198.14 L15.3240001,199.5 C15.3506669,199.686668 15.3640001,199.959998 15.3640001,200.32 C15.3640001,200.680002 15.3506669,200.953332 15.3240001,201.14 Z" id="settings---material"></path>
            </g>
        </g>
    </g>
</svg>
