<?xml version="1.0" encoding="UTF-8"?>
<svg viewBox="0 0 20 20" version="1.1" xmlns="http://www.w3.org/2000/svg" xmlns:xlink="http://www.w3.org/1999/xlink">
    <!-- Generator: Sketch 48.1 (47250) - http://www.bohemiancoding.com/sketch -->
    <title>promo-mark</title>
    <desc>Created with Sketch.</desc>
    <defs></defs>
    <g id="ICO-list" stroke="none" stroke-width="1" fill="none" fill-rule="evenodd" transform="translate(-52.000000, -629.000000)">
        <g id="promo-mark" transform="translate(52.000000, 629.000000)">
            <circle id="Combined-Shape" fill="#FABF2C" cx="10" cy="10" r="10"></circle>
            <polygon id="Star" fill="#4A4A4A" opacity="0.6" points="10 13.5 5.88550323 15.663119 6.67130219 11.0815595 3.34260439 7.83688104 7.94275162 7.16844052 10 3 12.0572484 7.16844052 16.6573956 7.83688104 13.3286978 11.0815595 14.1144968 15.663119"></polygon>
        </g>
    </g>
</svg>
