<svg xmlns="http://www.w3.org/2000/svg" xmlns:xlink="http://www.w3.org/1999/xlink" width="48" height="48" viewBox="0 0 48 48">
  <defs>
    <circle id="rectangle-24-a" cx="20" cy="20" r="20"/>
    <filter id="rectangle-24-b" width="135%" height="135%" x="-17.5%" y="-12.5%" filterUnits="objectBoundingBox">
      <feOffset dy="2" in="SourceAlpha" result="shadowOffsetOuter1"/>
      <feGaussianBlur in="shadowOffsetOuter1" result="shadowBlurOuter1" stdDeviation="2"/>
      <feColorMatrix in="shadowBlurOuter1" values="0 0 0 0 0   0 0 0 0 0   0 0 0 0 0  0 0 0 0.2 0"/>
    </filter>
  </defs>
  <g fill="none" fill-rule="evenodd" transform="translate(4 2)">
    <mask id="rectangle-24-c" fill="#fff">
      <use xlink:href="#rectangle-24-a"/>
    </mask>
    <use fill="#000" filter="url(#rectangle-24-b)" xlink:href="#rectangle-24-a"/>
    <use fill="#AFBDC4" xlink:href="#rectangle-24-a"/>
    <path fill="#253137" d="M20,31.2694611 C21.6087905,31.2694611 23.3732439,31.5029917 25.2934132,31.9700599 C27.4730648,32.5149728 29.2375182,33.2415124 30.5868263,34.1497006 C32.1956168,35.2135782 33,36.407179 33,37.7305389 L33,41 L7,41 L7,37.7305389 C7,36.407179 7.80438317,35.2135782 9.41317365,34.1497006 C10.7624818,33.2415124 12.5269352,32.5149728 14.7065868,31.9700599 C16.6267561,31.5029917 18.3912095,31.2694611 20,31.2694611 Z M20,28 C18.8323295,28 17.755494,27.7080868 16.7694611,27.1242515 C15.7834282,26.5404162 14.9985059,25.755494 14.4146707,24.7694611 C13.8308354,23.7834282 13.5389222,22.7065927 13.5389222,21.5389222 C13.5389222,20.3712516 13.8308354,19.2814422 14.4146707,18.2694611 C14.9985059,17.25748 15.7834282,16.4595838 16.7694611,15.8757485 C17.755494,15.2919132 18.8323295,15 20,15 C21.1676705,15 22.244506,15.2919132 23.2305389,15.8757485 C24.2165718,16.4595838 25.0014941,17.25748 25.5853293,18.2694611 C26.1691646,19.2814422 26.4610778,20.3712516 26.4610778,21.5389222 C26.4610778,22.7065927 26.1691646,23.7834282 25.5853293,24.7694611 C25.0014941,25.755494 24.2165718,26.5404162 23.2305389,27.1242515 C22.244506,27.7080868 21.1676705,28 20,28 Z" mask="url(#rectangle-24-c)"/>
  </g>
</svg>
